Bachelors Project
…
# Looking a MHC allele distrubution
autoimmune_data |>
  group_by(MHC_Allele) |>
  summarise(amount = n()) |>
  arrange(desc(amount))

# A tibble: 71 × 2
   MHC_Allele                amount
   <chr>                      <int>
 1 HLA class II                1676
 2 HLA-DR                       264
 3 HLA-DRB1*15:01               246
 4 HLA-DRB1*04:01               233
 5 HLA-DR4                      154
 6 HLA-DQA1*03:01/DQB1*03:02    112
 7 HLA-DRB4*01:01                60
 8 HLA-DR53                      58
 9 HLA-DRA*01:01/DRB1*04:01      51
10 HLA-DR15                      49
# ℹ 61 more rows
…
