Bachelors Project
…
peptide_counts |> 
  arrange(desc(count))

# A tibble: 5,588 × 6
   ID      peptides  protein_source            organism_source Pathogen_ID count
   <chr>   <chr>     <chr>                     <chr>           <list>      <int>
 1 434691  RTLLIK    Vimentin                  Homo sapiens    <chr [19]>     19
 2 434690  RGILTLK   Actin, cytoplasmic 1      Homo sapiens    <chr [4]>       4
 3 592182  FLIFPSA   Chain A, Complex Between… Homo sapiens    <chr [2]>       2
 4 1393024 KLPLLLAL  Bone marrow proteoglycan  Homo sapiens    <chr [2]>       2
 5 162146  ELLIRKLPF Histone HIST2H3PS2        Homo sapiens    <chr [1]>       1
 6 222306  FEFPEFQL  40S ribosomal protein S7  Homo sapiens    <chr [1]>       1
 7 451515  SLGSALRP  Vimentin                  Homo sapiens    <chr [1]>       1
 8 489000  YRPGTVALR Histone HIST2H3PS2        Homo sapiens    <chr [1]>       1
 9 1017052 GVLSDLTK  Tetraspanin-14            Homo sapiens    <chr [1]>       1
10 1031181 LQDAEIAR  Protein S100-A6           Homo sapiens    <chr [1]>       1
# ℹ 5,578 more rows
…
